div_wave.vcd
$date
	Tue Sep 16 18:41:34 2025
$end
$version
	Icarus Verilog
$end
$timescale
	1ps
$end
$scope module tb_division $end
$var wire 1 ! quo_valid $end
$var wire 40 " quo_data [39:0] $end
$var reg 1 # clk $end
$var reg 40 $ dividend_data [39:0] $end
$var reg 32 % divisor_data [31:0] $end
$var reg 1 & input_valid $end
$var reg 1 ' reset $end
$scope module uut $end
$var wire 1 ( accept $end
$var wire 1 # clk $end
$var wire 40 ) dividend_data [39:0] $end
$var wire 32 * divisor_data [31:0] $end
$var wire 1 & input_valid $end
$var wire 1 ! quo_valid $end
$var wire 1 ' reset $end
$var wire 40 + quo_data [39:0] $end
$var wire 5 , lz [4:0] $end
$var wire 3 - lut_index [2:0] $end
$var wire 40 . abs_q [39:0] $end
$var wire 32 / X_0 [31:0] $end
$var reg 72 0 Q [71:0] $end
$var reg 64 1 final_X [63:0] $end
$var reg 40 2 final_dividend [39:0] $end
$var reg 40 3 final_dividend_reg [39:0] $end
$var reg 1 4 final_sign $end
$var reg 1 5 final_sign_reg $end
$var reg 1 6 final_sign_reg2 $end
$var reg 1 7 s1_div_zero $end
$var reg 40 8 s1_dividend [39:0] $end
$var reg 32 9 s1_divisor [31:0] $end
$var reg 32 : s1_divisor_abs [31:0] $end
$var reg 1 ; s1_sign $end
$var reg 40 < s2_dividend [39:0] $end
$var reg 32 = s2_divisor [31:0] $end
$var reg 1 > s2_sign $end
$var reg 32 ? s3_X [31:0] $end
$var reg 40 @ s3_dividend [39:0] $end
$var reg 32 A s3_divisor [31:0] $end
$var reg 1 B s3_sign $end
$var reg 64 C s4_DX1 [63:0] $end
$var reg 32 D s4_X [31:0] $end
$var reg 40 E s4_dividend [39:0] $end
$var reg 32 F s4_divisor [31:0] $end
$var reg 1 G s4_sign $end
$var reg 64 H s5_X1 [63:0] $end
$var reg 40 I s5_dividend [39:0] $end
$var reg 32 J s5_divisor [31:0] $end
$var reg 1 K s5_sign $end
$var reg 64 L s6_DX2 [63:0] $end
$var reg 32 M s6_X1 [31:0] $end
$var reg 1 N v0 $end
$var reg 1 O v1 $end
$var reg 1 P v2 $end
$var reg 1 Q v3 $end
$var reg 1 R v4 $end
$var reg 1 S v5 $end
$var reg 1 T v6 $end
$var reg 1 U v7 $end
$scope module lut_inst $end
$var wire 3 V index [2:0] $end
$var reg 32 W value [31:0] $end
$upscope $end
$scope module lzc_inst $end
$var wire 32 X x [31:0] $end
$var reg 5 Y lzc [4:0] $end
$upscope $end
$upscope $end
$upscope $end
$enddefinitions $end
$comment Show the parameter values. $end
$dumpall
$end
#0
$dumpvars
bx Y
bx X
bx W
bx V
xU
xT
xS
xR
xQ
xP
xO
xN
bx M
bx L
xK
bx J
bx I
bx H
xG
bx F
bx E
bx D
bx C
xB
bx A
bx @
bx ?
x>
bx =
bx <
x;
bx :
bx 9
bx 8
x7
x6
x5
x4
bx 3
bx 2
bx 1
bx 0
bx /
bx .
bx -
bx ,
bx +
bx *
bx )
0(
0'
0&
bx %
bx $
0#
bx "
x!
$end
#5000
b100000000000000000 /
b100000000000000000 W
b0 -
b0 V
b11111 ,
b11111 Y
b0 "
b0 +
b0 .
0!
0U
0T
0S
0R
0Q
0P
0O
0N
0;
07
b0 :
b0 X
b0 9
b0 8
0>
b0 <
b0 =
b0 ?
b0 A
b0 @
0B
b0 D
b0 F
b0 E
0G
b0 C
b0 J
b0 I
0K
b0 H
b0 2
04
b0 M
b0 L
05
b0 3
b0 1
06
b0 0
1#
#10000
0#
#15000
b10011 ,
b10011 Y
b100000000000000000 ?
b100011111000 :
b100011111000 X
b11111111111111111111011100001000 9
b10000110000 8
1N
1#
1(
1&
b11111111111111111111011100001000 %
b11111111111111111111011100001000 *
b1111111111111111111111111111101111010000 $
b1111111111111111111111111111101111010000 )
1'
#20000
0#
#25000
b10001110001110010 /
b10001110001110010 W
b100 -
b100 V
b1000 ,
b1000 Y
1O
b11110110000000000000000 :
b11110110000000000000000 X
b11110110000000000000000 9
b110000001110010000000000000000 8
b100001100000000 <
b1000111110000000 =
b100000000000000000 D
1#
b11110110000000000000000 %
b11110110000000000000000 *
b110000001110010000000000000000 $
b110000001110010000000000000000 )
#30000
0#
#35000
b1101010101010101 /
b1101010101010101 W
b111 -
b111 V
b11110 ,
b11110 Y
b10000000000000000000000000000000000 H
b10001110001110010 ?
b1000111110000000 A
b100001100000000 @
b11000000111001000000000 <
b1111011000000000 =
b1 :
b1 X
b11111111111111111111111111111111 9
b10 8
1P
1#
b11111111111111111111111111111111 %
b11111111111111111111111111111111 *
b1111111111111111111111111111111111111110 $
b1111111111111111111111111111111111111110 )
#40000
0#
#45000
b10001110001110010 /
b10001110001110010 W
b100 -
b100 V
1Q
0N
b10000000000000000 <
b1000000000000000 =
b1101010101010101 ?
b1111011000000000 A
b11000000111001000000000 @
b10001110001110010 D
b1000111110000000 F
b100001100000000 E
b10011111011100011110011100000000 C
b1000000000000000000 M
1#
0(
0&
#50000
0#
#55000
b100000000000000000000000000000000000 1
b1000111110000000 J
b100001100000000 I
b110000111101110111010001110101110 H
b1101010101010101 D
b1111011000000000 F
b11000000111001000000000 E
b11001100111111111010111000000000 C
b10001110001110010 ?
b1000000000000000 A
b10000000000000000 @
1R
0O
1#
#60000
0#
#65000
1S
0P
b10001110001110010 D
b1000000000000000 F
b10000000000000000 E
b10001110001110010000000000000000 C
b1111011000000000 J
b11000000111001000000000 I
b11111111110101011100010001010101 H
b100001100000000 2
b11000011110111011 M
b11011011100101010101001010000000 L
1#
#70000
0#
#75000
b100001100000000 3
b110111111011101010000011100101001 1
b11000000111001000000000 2
b1111111111010101 M
b11110101110101101010111000000000 L
b1000000000000000 J
b10000000000000000 I
b110011010110111010110111010011110 H
1T
0Q
1#
#80000
0#
#85000
b111010100011011 "
b111010100011011 +
1(
1&
b11110110000000000000000 %
b11110110000000000000000 *
b110000001110010000000000000000 $
b110000001110010000000000000000 )
b111010100011011 .
1!
1U
0R
b10000000000000000 2
b11001101011011101 M
b11001101011011101000000000000000 L
b11000000111001000000000 3
b100001001111111010100101011110010 1
b1110101000110111001111100000000 0
1#
#90000
0#
#95000
b11001000011010101010010 "
b11001000011010101010010 +
b11001000011010101010010 .
b110010000110101010100101010101000000000 0
b10000000000000000 3
b111101100000001100111110000001010 1
0S
1#
0(
0&
#100000
0#
#105000
b11110110000000110 "
b11110110000000110 +
b11110110000000110 .
0T
b111101100000001100000000000000000 0
1#
#110000
0#
#115000
0!
0U
1#
